{
  "type": "service_account",
  "project_id": "learnfirebase-81ac6",
  "private_key_id": "e66a8914a19aaf482ad9c6da37ff76366a2476ae",
  "private_key": "-----BEGIN PRIVATE KEY-----\nMIIEvQIBADANBgkqhkiG9w0BAQEFAASCBKcwggSjAgEAAoIBAQCNbuO9Xl8+S2V+\n6R3u2KZ1yc9KVmJ5ahQIhnsxB+MQPi5/e7ZxZaTDuqTAMeI0rHamSSLjTo9x0Rtn\nqoyrFPVYS27ye/qxHh56j/4TpX64UNKY6OCJWiifFK1ObajMLCEzX645cph88AGT\nJ1HjTNAIAFxz4GdKtt26BoLT1Z459tkaWfpCmI49LDby64Ms6ycxSq+MiGOu/PbT\nZAGvmzRXA69/+etTghx5BooH9lQFAoFR0w1mSbMzOblFl7nKe+9Wje/uBw8Q0QnS\ni5MThiIEr7j229I0uubVwM3F/7tA+0hg0KmtUaePQUTjVax8oHwyr0ssdEEsc9wJ\nG2EukfvrAgMBAAECggEAKX33NRaLFZDz+Tv1qp0HlLW8aQAXyqvarbeaS4OXUywS\n4xaNqw3ZPQy0Cah4xuAzvMvm/s2M2qSwiASqWQSAh8M1jNDfdneyFF3K+cOK/hLD\n/dUQDmuTUDw2LbSRGTj3EoXG7JaYcsrMg3m9FdRykW5dsScL1oj4WntPhUr9rN41\nBgcx83jtY67ODZ6JBR+TRLkNnVF0mP5txC7LDQMU5+wmz07l+E3eLtRFDxe0Bsx9\n32L0cV7BjbQRslpYoDturPm3xdYxfTqWUuJ02ub01fYuo+Q8SgBA8d7nKVnWjbyR\npo5aJ7gc4rrznQ3mVZZV+h+OVmQi/1eK0cFQ+qkP4QKBgQDHQyY8UUEUcZJO9AeI\nWBwqc66dt84K8O5hCdak6FHQiVI+XpdnJVd5PYN7iiPW6MPO20enhSEXfajRYhX7\nHKmura1eOThVCvre+baSGdo7IlZeuMXaFCfZLKbY+DaMsOYz85jjlSC03IeFzsy3\nHnhvK4M0O221TNhLbMz5rW2c4QKBgQC1tGTXVQaW2NqIrMaqQqfZcgXkdkOXeEeT\niR0Z1V2QJ9JA53f58RfPebagfefASMUW323BJjNf2IJvDMM8F22XvZ+TV+IFuCf3\nlADYxcyG6u/bVH1pJenEijFX80YtY95ParilfeupiozDj4S2ZRddzA2qW9anam3K\n5kTf1P/GSwKBgDG+sMf0HQQmijkNsOe332g1sw0KuvR+S3SMSTqoCOy/q3mIkdGd\nP+YzliR8SxA20dNNaOkIUkeUBlYnX4duE2pZT2Orc0W/1PtfadW1gIasvtUs2a/k\nwkH0ZL7b0Hp1GzMzCCMgsqaUO30LMI4ynCxct4eNoojVY1YJFm7qfefhAoGAVk6G\nK4W2aIY+Xvb6MjsQ8Qbo55iJCHRYQyq4iOHA3E0d4DhR04WB0sm0Rk0nfDzUaMXd\nowXbFyaG5eqA/ZT/ODkYh+sRb7gGO+Gv+UcSm+8R2PMr0nrwq6scPvNNnRe3q688\nX1cNTe2CaQ1NczlXPPVEdGvE7KZv2hVAF7VbfDsCgYEAhf2JSgz2xLgTbSPDKwxj\n762YqS9k/AbiIqtqaShlw0rXdExyNjU6p77uX046aX4BHF+7jEr59w4C+fiXeQtW\nYHey3rXv+onY7EzPWUHSJ055d5A4WNiYmM/YLEPc6A8NWU1+I9EQnHVfhJrZxkWG\nB5aOiNhKCbw4qJtSWjSO/8A=\n-----END PRIVATE KEY-----\n",
  "client_email": "firebase-adminsdk-zpt5m@learnfirebase-81ac6.iam.gserviceaccount.com",
  "client_id": "114676385996085922273",
  "auth_uri": "https://accounts.google.com/o/oauth2/auth",
  "token_uri": "https://oauth2.googleapis.com/token",
  "auth_provider_x509_cert_url": "https://www.googleapis.com/oauth2/v1/certs",
  "client_x509_cert_url": "https://www.googleapis.com/robot/v1/metadata/x509/firebase-adminsdk-zpt5m%40learnfirebase-81ac6.iam.gserviceaccount.com"
}
